{
  "id": "1118635128",
  "title": "Provisionsfrei & vermietet: Frisch sanierte 2,5-Zimmer-Wohnung mit Smart-Home-Technologie",
  "price": {
    "currency": "EUR",
    "amount": 162502
  },
  "visits": 5762,
  "address": {
    "street": "Okerstraße 12",
    "city": "Berlin",
    "zip-code": "12049",
    "longitude": "13.42392",
    "latitude": "52.47425"
  },
  "posted-date-time": "2020-12-04T08:01:00.000+0100",
  "description": "Bei der Jahnstrasse 49 handelt es sich um ein schön gegliedertes, fünfgeschossiges Gebäude, das 1905 erbaut wurde. 2018/2019 wurde das Projekt komplett entkernt und aufwändig saniert. Hierbei wurden Türen und Fenster nach modernsten Anforderungen ausgetauscht. Sämtliche Holzbodenbeläge sind zudem aus lokalen Hölzern hergestellt und die Ausstattung der Bäder erfolgte nach luxuriösen und zeitgemäßen Standards. Jede der sieben vermieteten Wohneinheiten verfügt außerdem über eine eigene, ostseitige Terrasse oder einen großzügigen Balkon und folgt der „Smart, Green & Light“-Philosophie. Das bedeutet, die Objekte erzeugen einen Teil der benötigten elektrischen Energie mit Hilfe von Fotovoltaik selbst – umweltschonendes und kosteneffizientes Wohnen auf höchstem Niveau\n\nNeuste technologische Raffinessen und ein durchdachtes Raumkonzept: Diese frisch sanierte 2,5-Zimmer-Wohnung besticht nicht nur durch ihren praktischen Grundriss, sondern auch durch eine auf Fotovoltaik basierende Smart-Home-Technologie. Ein großer Balkon mit Ost-Ausrichtung trifft dabei auf einen hellen Wohn-/Koch-/Essbereich, ein elegantes Bad mit Wanne und einen Schlaf-/Arbeitsbereich, der durch praktische Schiebeelemente separiert werden kann. 56 Quadratmeter pures Wohnglück, an dem sich Ihre derzeitigen Mieter erfreuen können.\n\nDie Jahnstrasse 49 befindet sich im beliebten Lutherviertel, das seinen Namen der 1908 errichteten Lutherkirche verdankt. Es zieht vornehmlich Studenten und junge Familien an und gilt als jüngstes Chemnitzer Wohngebiet. Aufgrund seiner attraktiven Gebäudestruktur und Bebauungsdichte, der guten Infrastruktur sowie der Innenstadt-nahen Lage (etwa 10–20 Minuten Fußweg zum Zentrum) mausert es sich derzeit zum neuen Trend-Viertel und wird zudem durch zahlreiche städtische Förderprogramme unterstützt. Dazu zählen der Bau eines Radweges in die Innenstadt und eine Vergrößerung der Grün- und Freiflächen.\n\nAusstattung:\nVerkauf im vermieteten Ist-Zustand\n\nNetto-Rendite: 3.17 %, Nettokaltmiete: 498.20 €, Hausgeld: 165.53 €\n\nNeues Bad mit eleganten Fliesen und Badewanne\n\nGehobene Ausstattung (Smart Home, Fußbodenheizung) - frisch saniert\n\nWeitere Angaben:\nVerfügbar ab: Bezugsfrei\nObjektzustand: saniert\nBodenbelag: Parkett\n\nLagebeschreibung:\nDie Jahnstrasse 49 befindet sich im beliebten Lutherviertel, das seinen Namen der 1908 errichteten Lutherkirche verdankt. Es zieht vornehmlich Studenten und junge Familien an und gilt als jüngstes Chemnitzer Wohngebiet. Aufgrund seiner attraktiven Gebäudestruktur und Bebauungsdichte, der guten Infrastruktur sowie der Innenstadt-nahen Lage (etwa 10–20 Minuten Fußweg zum Zentrum) mausert es sich derzeit zum neuen Trend-Viertel und wird zudem durch zahlreiche städtische Förderprogramme unterstützt. Dazu zählen der Bau eines Radweges in die Innenstadt und eine Vergrößerung der Grün- und Freiflächen.\n\nSonstiges:\nTraumwohnung gefunden? Dann nutzen Sie jetzt die EverEstate Immobilienfinanzierung in Zusammenarbeit mit unserem Partner ZIEGERT Immobilien und profitieren Sie von jahrelanger Expertise in Verbindung mit kompetenter Beratung.\n\nEnergie:\nEnergieausweis: Energiebedarfsausweis\nEndenergiebedarf: 119.6 kWh(m²*a)\nBaujahr (gemäß Energieausweis): 1905\nHeizungsart: Fußbodenheizung\nWesentliche Energieträger: Gas\n\nAnbieter-Objekt-ID: 2bb33828-167f-47a1-8544-694ad7cd110c",
  "attributes": [
    {
      "label": "Wohnfläche",
      "value": "56,03",
      "unit": "m²"
    },
    {
      "label": "Zimmer",
      "value": "2,5",
      "unit": ""
    },
    {
      "label": "Etage",
      "value": "2",
      "unit": ""
    },
    {
      "label": "Wohnungstyp",
      "value": "Etagenwohnung"
    },
    {
      "label": "Baujahr",
      "value": "1905"
    },
    {
      "label": "Provision",
      "value": "Keine zusätzliche Käuferprovision",
      "unit": ""
    }
  ],
  "features": [
    "Balkon",
    "Garage / Stellplatz",
    "Dusche",
    "Aufzug",
    "Keller"
  ],
  "pictures": [
    "https://i.ebayimg.com/00/s/NjAwWDgwMA==/z/UhYAAOSweiZf0KEb/$_{imageId}.JPG",
    "https://i.ebayimg.com/00/s/NjAwWDgwMA==/z/LjEAAOSwCudf0KEb/$_{imageId}.JPG",
    "https://i.ebayimg.com/00/s/NjAwWDgwMA==/z/J2IAAOSwpE5f0KEb/$_{imageId}.JPG",
    "https://i.ebayimg.com/00/s/NjAwWDgwMA==/z/zhIAAOSwluVf0KEb/$_{imageId}.JPG",
    "https://i.ebayimg.com/00/s/NjAwWDgwMA==/z/ky0AAOSwwO9f0KEb/$_{imageId}.JPG",
    "https://i.ebayimg.com/00/s/NjAwWDgwMA==/z/ZMgAAOSwleBf0KEb/$_{imageId}.JPG",
    "https://i.ebayimg.com/00/s/NjAwWDgwMA==/z/bYQAAOSwhZFf0KEc/$_{imageId}.JPG",
    "https://i.ebayimg.com/00/s/NjAwWDgwMA==/z/dSsAAOSwT~lf0KEb/$_{imageId}.JPG",
    "https://i.ebayimg.com/00/s/NjAwWDgwMA==/z/fU0AAOSw0Ptf0KEb/$_{imageId}.JPG"
  ],
  "documents": [
    {
      "link": "https://ebay-kleinanzeigen-user-content.de/dokumente/54a8dbbb-b71c-479a-a7eb-6b14748b69da.pdf",
      "title": "Grundriss"
    },
    {
      "link": "https://ebay-kleinanzeigen-user-content.de/dokumente/c9041b59-757a-4244-89a2-ce1e38062e89.pdf",
      "title": "Energieausweis"
    }
  ]
}
